{
 "Changes": [
        {
            "Action": "EditData",
            "Target": "Data/Pants",
            "Entries": {
                "Elaho.PaisleysBridalBoutiqueCP_Black_Hungarian_Wedding_Dress": {
                    "Name": "Black Beaded Tunic",
                    "DisplayName": "{{i18n:black-hungarian-wedding-dress-PBB.name}}",
                    "Description": "{{i18n:black-hungarian-wedding-dress-PBB.description}}",
					"Price": 5000,
					"Texture": "Mods\\Elaho.PaisleysBridalBoutiqueCP\\Black Hungarian Wedding Dress",
                    "SpriteIndex": 0,
					"CanBeDyed": false,
					"IsPrismatic": false,
					"CanChooseDuringCharacterCustomization": false,
					"CustomFields": null
            },
				"Elaho.PaisleysBridalBoutiqueCP_Blue_Celtic_Dress": {
					"Name": "Blue Celtic Dress",
					"DisplayName": "{{i18n:blue-celtic-dress-PBB.name}}",
					"Description": "{{i18n:blue-celtic-dress-PBB.description}}",
					"Price": 5000,
					"Texture": "Mods\\Elaho.PaisleysBridalBoutiqueCP\\Blue Celtic Dress",
					"SpriteIndex": 0,
					"CanBeDyed": false,
					"IsPrismatic": false,
					"CanChooseDuringCharacterCustomization": false,
					"CustomFields": null
			},
				"Elaho.PaisleysBridalBoutiqueCP_Lucky_Blue_Tuxedo_Pants": {
					"Name": "Lucky Blue Tuxedo Pants",
					"DisplayName": "{{i18n:lucky-blue-tuxedo-pants-PBB.name}}",
					"Description": "{{i18n:lucky-blue-tuxedo-pants-PBB.description}}",
					"Price": 4500,
					"Texture": "Mods\\Elaho.PaisleysBridalBoutiqueCP\\Lucky Blue Tuxedo Pants",
					"SpriteIndex": 0,
					"CanBeDyed": false,
					"IsPrismatic": false,
					"CanChooseDuringCharacterCustomization": false,
					"CustomFields": null
			},
				"Elaho.PaisleysBridalBoutiqueCP_Lockhart_Sash_Dress": {
					"Name": "Lockhart Sash Dress",
					"DisplayName": "{{i18n:lockhart-sash-dress-PBB.name}}",
					"Description": "{{i18n:lockhart-sash-dress-PBB.description}}",
					"Price": 5000,
					"Texture": "Mods\\Elaho.PaisleysBridalBoutiqueCP\\Lockhart Sash Dress",
					"SpriteIndex": 0,
					"CanBeDyed": false,
					"IsPrismatic": false,
					"CanChooseDuringCharacterCustomization": false,
					"CustomFields": null
			},
				"Elaho.PaisleysBridalBoutiqueCP_Lockhart_Sash_Pants": {
					"Name": "Lockhart Sash Pants",
					"DisplayName": "{{i18n:lockhart-sash-pants-PBB.name}}",
					"Description": "{{i18n:lockhart-sash-pants-PBB.description}}",
					"Price": 4500,
					"Texture": "Mods\\Elaho.PaisleysBridalBoutiqueCP\\Lockhart Sash Pants",
					"SpriteIndex": 0,
					"CanBeDyed": false,
					"IsPrismatic": false,
					"CanChooseDuringCharacterCustomization": false,
					"CustomFields": null
			},
				"Elaho.PaisleysBridalBoutiqueCP_Red_Embroidered_Pants": {
					"Name": "Red Embroidered Pants",
					"DisplayName": "{{i18n:red-embroidered-pants-PBB.name}}",
					"Description": "{{i18n:red-embroidered-pants-PBB.description}}",
					"Price": 4500,
					"Texture": "Mods\\Elaho.PaisleysBridalBoutiqueCP\\Red Embroidered Pants",
					"SpriteIndex": 0,
					"CanBeDyed": false,
					"IsPrismatic": false,
					"CanChooseDuringCharacterCustomization": false,
					"CustomFields": null
			},
				"Elaho.PaisleysBridalBoutiqueCP_Blue_Tallit_Pants": {
					"Name": "Blue Tallit Pants",
					"DisplayName": "{{i18n:blue-tallit-pants-PBB.name}}",
					"Description": "{{i18n:blue-tallit-pants-PBB.description}}",
					"Price": 4500,
					"Texture": "Mods\\Elaho.PaisleysBridalBoutiqueCP\\Blue Tallit Pants",
					"SpriteIndex": 0,
					"CanBeDyed": false,
					"IsPrismatic": false,
					"CanChooseDuringCharacterCustomization": false,
					"CustomFields": null
			},
				"Elaho.PaisleysBridalBoutiqueCP_Gold_Tallit_Pants": {
					"Name": "Gold Tallit Pants",
					"DisplayName": "{{i18n:gold-tallit-pants-PBB.name}}",
					"Description": "{{i18n:gold-tallit-pants-PBB.description}}",
					"Price": 4500,
					"Texture": "Mods\\Elaho.PaisleysBridalBoutiqueCP\\Gold Tallit Pants",
					"SpriteIndex": 0,
					"CanBeDyed": false,
					"IsPrismatic": false,
					"CanChooseDuringCharacterCustomization": false,
					"CustomFields": null
			},
				"Elaho.PaisleysBridalBoutiqueCP_Red_Embroidered_Dress": {
					"Name": "Red Embroidered Dress",
					"DisplayName": "{{i18n:red-embroidered-dress-PBB.name}}",
					"Description": "{{i18n:red-embroidered-dress-PBB.description}}",
					"Price": 5000,
					"Texture": "Mods\\Elaho.PaisleysBridalBoutiqueCP\\Red Embroidered Dress",
					"SpriteIndex": 0,
					"CanBeDyed": false,
					"IsPrismatic": false,
					"CanChooseDuringCharacterCustomization": false,
					"CustomFields": null
			},
				"Elaho.PaisleysBridalBoutiqueCP_Black_Tunic_Skirt": {
					"Name": "Black Tunic Skirt",
					"DisplayName": "{{i18n:black-tunic-skirt-PBB.name}}",
					"Description": "{{i18n:black-tunic-skirt-PBB.description}}",
					"Price": 5000,
					"Texture": "Mods\\Elaho.PaisleysBridalBoutiqueCP\\Black Tunic Skirt",
					"SpriteIndex": 0,
					"CanBeDyed": false,
					"IsPrismatic": false,
					"CanChooseDuringCharacterCustomization": false,
					"CustomFields": null
			},
				"Elaho.PaisleysBridalBoutiqueCP_Polish_White_Wedding_Dress": {
					"Name": "Polish White Wedding Dress",
					"DisplayName": "{{i18n:polish-white-wedding-dress-PBB.name}}",
					"Description": "{{i18n:polish-white-wedding-dress-PBB.description}}",
					"Price": 5000,
					"Texture": "Mods\\Elaho.PaisleysBridalBoutiqueCP\\Polish White Wedding Dress",
					"SpriteIndex": 0,
					"CanBeDyed": false,
					"IsPrismatic": false,
					"CanChooseDuringCharacterCustomization": false,
					"CustomFields": null
			},
				"Elaho.PaisleysBridalBoutiqueCP_Polish_Wedding_Pants": {
					"Name": "Lucky Blue Tuxedo Pants",
					"DisplayName": "{{i18n:polish-wedding-pants-PBB.name}}",
					"Description": "{{i18n:polish-wedding-pants-PBB.description}}",
					"Price": 4500,
					"Texture": "Mods\\Elaho.PaisleysBridalBoutiqueCP\\Polish Wedding Pants",
					"SpriteIndex": 0,
					"CanBeDyed": false,
					"IsPrismatic": false,
					"CanChooseDuringCharacterCustomization": false,
					"CustomFields": null
			},
				"Elaho.PaisleysBridalBoutiqueCP_Norwegian_Wedding_Dress": {
					"Name": "Norwegian Wedding Dress",
					"DisplayName": "{{i18n:norwegian-wedding-dress-PBB.name}}",
					"Description": "{{i18n:norwegian-wedding-dress-PBB.description}}",
					"Price": 5000,
					"Texture": "Mods\\Elaho.PaisleysBridalBoutiqueCP\\Norwegian Wedding Dress",
					"SpriteIndex": 0,
					"CanBeDyed": false,
					"IsPrismatic": false,
					"CanChooseDuringCharacterCustomization": false,
					"CustomFields": null
			},
				"Elaho.PaisleysBridalBoutiqueCP_Norwegian_Wedding_Pants": {
					"Name": "Norwegian Wedding Pants",
					"DisplayName": "{{i18n:norwegian-wedding-pants-PBB.name}}",
					"Description": "{{i18n:norwegian-wedding-pants-PBB.description}}",
					"Price": 4500,
					"Texture": "Mods\\Elaho.PaisleysBridalBoutiqueCP\\Norwegian Wedding Pants",
					"SpriteIndex": 0,
					"CanBeDyed": false,
					"IsPrismatic": false,
					"CanChooseDuringCharacterCustomization": false,
					"CustomFields": null
			},
				"Elaho.PaisleysBridalBoutiqueCP_Blue_Vietnamese_Wedding_Pants": {
					"Name": "Blue Vietnamese Wedding Pants",
					"DisplayName": "{{i18n:blue-vietnamese-wedding-pants-PBB.name}}",
					"Description": "{{i18n:blue-vietnamese-wedding-pants-PBB.description}}",
					"Price": 4500,
					"Texture": "Mods\\Elaho.PaisleysBridalBoutiqueCP\\Blue Vietnamese Wedding Pants",
					"SpriteIndex": 0,
					"CanBeDyed": false,
					"IsPrismatic": false,
					"CanChooseDuringCharacterCustomization": false,
					"CustomFields": null
			},
				"Elaho.PaisleysBridalBoutiqueCP_Red_Vietnamese_Wedding_Pants": {
					"Name": "Red Vietnamese Wedding Pants",
					"DisplayName": "{{i18n:red-vietnamese-wedding-pants-PBB.name}}",
					"Description": "{{i18n:red-vietnamese-wedding-pants-PBB.description}}",
					"Price": 5000,
					"Texture": "Mods\\Elaho.PaisleysBridalBoutiqueCP\\Red Vietnamese Wedding Pants",
					"SpriteIndex": 0,
					"CanBeDyed": false,
					"IsPrismatic": false,
					"CanChooseDuringCharacterCustomization": false,
					"CustomFields": null
			},
				"Elaho.PaisleysBridalBoutiqueCP_Black_Lace_Dress": {
					"Name": "Black Lace Dress",
					"DisplayName": "{{i18n:black-lace-dress-PBB.name}}",
					"Description": "{{i18n:black-lace-dress-PBB.description}}",
					"Price": 5000,
					"Texture": "Mods\\Elaho.PaisleysBridalBoutiqueCP\\Black Lace Dress",
					"SpriteIndex": 0,
					"CanBeDyed": false,
					"IsPrismatic": false,
					"CanChooseDuringCharacterCustomization": false,
					"CustomFields": null
			},
				"Elaho.PaisleysBridalBoutiqueCP_Georgian_Wedding_Dress": {
					"Name": "Georgian Wedding Dress",
					"DisplayName": "{{i18n:georgian-wedding-dress-PBB.name}}",
					"Description": "{{i18n:georgian-wedding-dress-PBB.description}}",
					"Price": 5000,
					"Texture": "Mods\\Elaho.PaisleysBridalBoutiqueCP\\Georgian Wedding Dress",
					"SpriteIndex": 0,
					"CanBeDyed": false,
					"IsPrismatic": false,
					"CanChooseDuringCharacterCustomization": false,
					"CustomFields": null
			},
				"Elaho.PaisleysBridalBoutiqueCP_Black_Romanian_Dress": {
					"Name": "Black Romanian Dress",
					"DisplayName": "{{i18n:black-romanian-dress-PBB.name}}",
					"Description": "{{i18n:black-romanian-dress-PBB.description}}",
					"Price": 5000,
					"Texture": "Mods\\Elaho.PaisleysBridalBoutiqueCP\\Black Romanian Dress",
					"SpriteIndex": 0,
					"CanBeDyed": false,
					"IsPrismatic": false,
					"CanChooseDuringCharacterCustomization": false,
					"CustomFields": null
			},
				"Elaho.PaisleysBridalBoutiqueCP_Gold_Embroidered_Pants": {
					"Name": "Lucky Blue Tuxedo Pants",
					"DisplayName": "{{i18n:gold-embroidered-pants-PBB.name}}",
					"Description": "{{i18n:gold-embroidered-pants-PBB.description}}",
					"Price": 4500,
					"Texture": "Mods\\Elaho.PaisleysBridalBoutiqueCP\\Gold Embroidered Pants",
					"SpriteIndex": 0,
					"CanBeDyed": false,
					"IsPrismatic": false,
					"CanChooseDuringCharacterCustomization": false,
					"CustomFields": null
			},
				"Elaho.PaisleysBridalBoutiqueCP_Gothic_Dress_Pants": {
					"Name": "Gothic Dress Pants",
					"DisplayName": "{{i18n:gothic-dress-pants-PBB.name}}",
					"Description": "{{i18n:gothic-dress-pants-PBB.description}}",
					"Price": 4500,
					"Texture": "Mods\\Elaho.PaisleysBridalBoutiqueCP\\Gothic Dress Pants",
					"SpriteIndex": 0,
					"CanBeDyed": false,
					"IsPrismatic": false,
					"CanChooseDuringCharacterCustomization": false,
					"CustomFields": null
			},
				"Elaho.PaisleysBridalBoutiqueCP_Red_Lehenga_Dress": {
					"Name": "Red Lehenga Dress",
					"DisplayName": "{{i18n:red-lehenga-dress-PBB.name}}",
					"Description": "{{i18n:red-lehenga-dress-PBB.description}}",
					"Price": 5000,
					"Texture": "Mods\\Elaho.PaisleysBridalBoutiqueCP\\Red Lehenga Dress",
					"SpriteIndex": 0,
					"CanBeDyed": false,
					"IsPrismatic": false,
					"CanChooseDuringCharacterCustomization": false,
					"CustomFields": null
			},
				"Elaho.PaisleysBridalBoutiqueCP_White_Peplum-Dress": {
					"Name": "White Peplum Dress",
					"DisplayName": "{{i18n:white-peplum-dress-PBB.name}}",
					"Description": "{{i18n:white-peplum-dress-PBB.description}}",
					"Price": 4000,
					"Texture": "Mods\\Elaho.PaisleysBridalBoutiqueCP\\White Peplum Dress",
					"SpriteIndex": 0,
					"CanBeDyed": false,
					"IsPrismatic": false,
					"CanChooseDuringCharacterCustomization": false,
					"CustomFields": null
			},
				"Elaho.PaisleysBridalBoutiqueCP_White_Tulle_Dress": {
					"Name": "White Tulle Dress",
					"DisplayName": "{{i18n:white-tulle-dress-PBB.name}}",
					"Description": "{{i18n:white-tulle-dress-PBB.description}}",
					"Price": 4000,
					"Texture": "Mods\\Elaho.PaisleysBridalBoutiqueCP\\White Tulle Dress",
					"SpriteIndex": 0,
					"CanBeDyed": false,
					"IsPrismatic": false,
					"CanChooseDuringCharacterCustomization": false,
					"CustomFields": null
				},
		//New Pants
				"Elaho.PaisleysBridalBoutiqueCP_Blue_Flower_Dance_Pants": {
					"Name": "Blue Flower Dance Pants",
					"DisplayName": "{{i18n:blue-flower-dance-pants-PBB.name}}",
					"Description": "{{i18n:blue-flower-dance-pants-PBB.description}}",
					"Price": 4500,
					"Texture": "Mods\\Elaho.PaisleysBridalBoutiqueCP\\Blue Flower Dance Pants",
					"SpriteIndex": 0,
					"CanBeDyed": false,
					"IsPrismatic": false,
					"CanChooseDuringCharacterCustomization": false,
					"CustomFields": null
				},
				"Elaho.PaisleysBridalBoutiqueCP_White_Flower_Dance_Pants": {
					"Name": "White Flower Dance Pants",
					"DisplayName": "{{i18n:white-flower-dance-pants-PBB.name}}",
					"Description": "{{i18n:white-flower-dance-pants-PBB.description}}",
					"Price": 4500,
					"Texture": "Mods\\Elaho.PaisleysBridalBoutiqueCP\\White Flower Dance Pants",
					"SpriteIndex": 0,
					"CanBeDyed": false,
					"IsPrismatic": false,
					"CanChooseDuringCharacterCustomization": false,
					"CustomFields": null
				},
				"Elaho.PaisleysBridalBoutiqueCP_Blue_Flower_Dance_Dress": {
					"Name": "Blue Flower Dance Dress",
					"DisplayName": "{{i18n:blue-flower-dance-dress-PBB.name}}",
					"Description": "{{i18n:blue-flower-dance-dress-PBB.description}}",
					"Price": 5000,
					"Texture": "Mods\\Elaho.PaisleysBridalBoutiqueCP\\Blue Flower Dance Dress",
					"SpriteIndex": 0,
					"CanBeDyed": false,
					"IsPrismatic": false,
					"CanChooseDuringCharacterCustomization": false,
					"CustomFields": null
				},
				"Elaho.PaisleysBridalBoutiqueCP_White_Flower_Dance_Dress": {
					"Name": "White Flower Dance Dress",
					"DisplayName": "{{i18n:white-flower-dance-dress-PBB.name}}",
					"Description": "{{i18n:white-flower-dance-dress-PBB.description}}",
					"Price": 5000,
					"Texture": "Mods\\Elaho.PaisleysBridalBoutiqueCP\\White Flower Dance Dress",
					"SpriteIndex": 0,
					"CanBeDyed": false,
					"IsPrismatic": false,
					"CanChooseDuringCharacterCustomization": false,
					"CustomFields": null
				},
			},
		},
		
		//Pants Sprites
		{
            "Action": "Load",
            "Target": "Mods\\Elaho.PaisleysBridalBoutiqueCP\\Black Hungarian Wedding Dress",
            "FromFile": "assets/Items/Pants/BlackHungarianWeddingDress.png"
        },
			        {
            "Action": "Load",
            "Target": "Mods\\Elaho.PaisleysBridalBoutiqueCP\\Blue Celtic Dress",
            "FromFile": "assets/Items/Pants/BlueCelticDress.png"
        },
			        {
            "Action": "Load",
            "Target": "Mods\\Elaho.PaisleysBridalBoutiqueCP\\Lucky Blue Tuxedo Pants",
            "FromFile": "assets/Items/Pants/LuckyBlueTuxedoPants.png"
        },
			        {
            "Action": "Load",
            "Target": "Mods\\Elaho.PaisleysBridalBoutiqueCP\\Lockhart Sash Dress",
            "FromFile": "assets/Items/Pants/LockhartSashDress.png"
        },
			        {
            "Action": "Load",
            "Target": "Mods\\Elaho.PaisleysBridalBoutiqueCP\\Lockhart Sash Pants",
            "FromFile": "assets/Items/Pants/LockhartSashPants.png"
        },
			        {
            "Action": "Load",
            "Target": "Mods\\Elaho.PaisleysBridalBoutiqueCP\\Red Embroidered Pants",
            "FromFile": "assets/Items/Pants/RedEmbroideredPants.png"
        },
			        {
            "Action": "Load",
            "Target": "Mods\\Elaho.PaisleysBridalBoutiqueCP\\Blue Tallit Pants",
            "FromFile": "assets/Items/Pants/BlueTallitPants.png"
        },
			        {
            "Action": "Load",
            "Target": "Mods\\Elaho.PaisleysBridalBoutiqueCP\\Gold Tallit Pants",
            "FromFile": "assets/Items/Pants/BlueTallitPants.png"
        },
			        {
            "Action": "Load",
            "Target": "Mods\\Elaho.PaisleysBridalBoutiqueCP\\Red Embroidered Dress",
            "FromFile": "assets/Items/Pants/RedEmbroideredDress.png"
        },
			        {
            "Action": "Load",
            "Target": "Mods\\Elaho.PaisleysBridalBoutiqueCP\\Black Tunic Skirt",
            "FromFile": "assets/Items/Pants/BlackTunicSkirt.png"
        },
			        {
            "Action": "Load",
            "Target": "Mods\\Elaho.PaisleysBridalBoutiqueCP\\Polish White Wedding Dress",
            "FromFile": "assets/Items/Pants/PolishWhiteWeddingDress.png"
        },
			        {
            "Action": "Load",
            "Target": "Mods\\Elaho.PaisleysBridalBoutiqueCP\\Polish Wedding Pants",
            "FromFile": "assets/Items/Pants/PolishWeddingPants.png"
        },
			        {
            "Action": "Load",
            "Target": "Mods\\Elaho.PaisleysBridalBoutiqueCP\\Norwegian Wedding Dress",
            "FromFile": "assets/Items/Pants/NorwegianWeddingDress.png"
        },
			        {
            "Action": "Load",
            "Target": "Mods\\Elaho.PaisleysBridalBoutiqueCP\\Norwegian Wedding Pants",
            "FromFile": "assets/Items/Pants/NorwegianWeddingPants.png"
        },
			        {
            "Action": "Load",
            "Target": "Mods\\Elaho.PaisleysBridalBoutiqueCP\\Blue Vietnamese Wedding Pants",
            "FromFile": "assets/Items/Pants/BlueVietnameseWeddingPants.png"
        },
			        {
            "Action": "Load",
            "Target": "Mods\\Elaho.PaisleysBridalBoutiqueCP\\Red Vietnamese Wedding Pants",
            "FromFile": "assets/Items/Pants/RedVietnameseWeddingPants.png"
        },
			        {
            "Action": "Load",
            "Target": "Mods\\Elaho.PaisleysBridalBoutiqueCP\\Black Lace Dress",
            "FromFile": "assets/Items/Pants/BlackLaceDress.png"
        },
			        {
            "Action": "Load",
            "Target": "Mods\\Elaho.PaisleysBridalBoutiqueCP\\Georgian Wedding Dress",
            "FromFile": "assets/Items/Pants/GeorgianWeddingDress.png"
        },
			        {
            "Action": "Load",
            "Target": "Mods\\Elaho.PaisleysBridalBoutiqueCP\\Black Romanian Dress",
            "FromFile": "assets/Items/Pants/BlackRomanianDress.png"
        },
			        {
            "Action": "Load",
            "Target": "Mods\\Elaho.PaisleysBridalBoutiqueCP\\Gold Embroidered Pants",
            "FromFile": "assets/Items/Pants/GoldEmbroideredPants.png"
        },
			        {
            "Action": "Load",
            "Target": "Mods\\Elaho.PaisleysBridalBoutiqueCP\\Gothic Dress Pants",
            "FromFile": "assets/Items/Pants/GothicDressPants.png"
        },
			        {
            "Action": "Load",
            "Target": "Mods\\Elaho.PaisleysBridalBoutiqueCP\\Red Lehenga Dress",
            "FromFile": "assets/Items/Pants/RedLehengaDress.png"
        },
			        {
            "Action": "Load",
            "Target": "Mods\\Elaho.PaisleysBridalBoutiqueCP\\White Peplum Dress",
            "FromFile": "assets/Items/Pants/WhitePeplumDress.png"
        },
			        {
            "Action": "Load",
            "Target": "Mods\\Elaho.PaisleysBridalBoutiqueCP\\White Tulle Dress",
            "FromFile": "assets/Items/Pants/WhiteTulleDress.png"
        },
	//New Pants Sprites
			        {
            "Action": "Load",
            "Target": "Mods\\Elaho.PaisleysBridalBoutiqueCP\\Blue Flower Dance Pants",
            "FromFile": "assets/Items/Pants/BlueFlowerDancePants.png"
        },
			        {
            "Action": "Load",
            "Target": "Mods\\Elaho.PaisleysBridalBoutiqueCP\\White Flower Dance Pants",
            "FromFile": "assets/Items/Pants/WhiteFlowerDancePants.png"
        },
			        {
            "Action": "Load",
            "Target": "Mods\\Elaho.PaisleysBridalBoutiqueCP\\Blue Flower Dance Dress",
            "FromFile": "assets/Items/Pants/BlueFlowerDanceDress.png"
        },
			        {
            "Action": "Load",
            "Target": "Mods\\Elaho.PaisleysBridalBoutiqueCP\\White Flower Dance Dress",
            "FromFile": "assets/Items/Pants/WhiteFlowerDanceDress.png"
        },
	] 
}